<?xml version="1.0" encoding="windows-1252" standalone="no"?>
<!DOCTYPE log SYSTEM "logger.dtd">
<log>
<record>
  <date>2022-09-17T11:09:45.549034100Z</date>
  <millis>1663412985549</millis>
  <nanos>34100</nanos>
  <sequence>0</sequence>
  <logger>global</logger>
  <level>WARNING</level>
  <class>loggerpackage.LogClass</class>
  <method>logMethod</method>
  <thread>1</thread>
  <message>warning message</message>
</record>
<record>
  <date>2022-09-17T11:09:45.658459400Z</date>
  <millis>1663412985658</millis>
  <nanos>459400</nanos>
  <sequence>1</sequence>
  <logger>global</logger>
  <level>INFO</level>
  <class>loggerpackage.LogClass</class>
  <method>logMethod</method>
  <thread>1</thread>
  <message>info message</message>
</record>
<record>
  <date>2022-09-17T11:09:45.678609100Z</date>
  <millis>1663412985678</millis>
  <nanos>609100</nanos>
  <sequence>2</sequence>
  <logger>global</logger>
  <level>INFO</level>
  <class>loggerpackage.LogClass</class>
  <method>logMethod</method>
  <thread>1</thread>
  <message>data added</message>
</record>
<record>
  <date>2022-09-17T11:09:45.679621300Z</date>
  <millis>1663412985679</millis>
  <nanos>621300</nanos>
  <sequence>3</sequence>
  <logger>global</logger>
  <level>INFO</level>
  <class>loggerpackage.LogClass</class>
  <method>logMethod</method>
  <thread>1</thread>
  <message>tasks added</message>
</record>
</log>
<?xml version="1.0" encoding="windows-1252" standalone="no"?>
<!DOCTYPE log SYSTEM "logger.dtd">
<log>
<record>
  <date>2022-09-17T15:06:10.316521500Z</date>
  <millis>1663427170316</millis>
  <nanos>521500</nanos>
  <sequence>0</sequence>
  <logger>global</logger>
  <level>WARNING</level>
  <class>loggerpackage.LogClass</class>
  <method>logMethod</method>
  <thread>1</thread>
  <message>warning message</message>
</record>
<record>
  <date>2022-09-17T15:06:10.380017Z</date>
  <millis>1663427170380</millis>
  <nanos>17000</nanos>
  <sequence>1</sequence>
  <logger>global</logger>
  <level>INFO</level>
  <class>loggerpackage.LogClass</class>
  <method>logMethod</method>
  <thread>1</thread>
  <message>info message</message>
</record>
<record>
  <date>2022-09-17T15:06:10.380017Z</date>
  <millis>1663427170380</millis>
  <nanos>17000</nanos>
  <sequence>2</sequence>
  <logger>global</logger>
  <level>INFO</level>
  <class>loggerpackage.LogClass</class>
  <method>logMethod</method>
  <thread>1</thread>
  <message>data added</message>
</record>
<record>
  <date>2022-09-17T15:06:10.381080800Z</date>
  <millis>1663427170381</millis>
  <nanos>80800</nanos>
  <sequence>3</sequence>
  <logger>global</logger>
  <level>INFO</level>
  <class>loggerpackage.LogClass</class>
  <method>logMethod</method>
  <thread>1</thread>
  <message>tasks added</message>
</record>
</log>
<?xml version="1.0" encoding="windows-1252" standalone="no"?>
<!DOCTYPE log SYSTEM "logger.dtd">
<log>
<record>
  <date>2022-09-17T15:08:41.484268500Z</date>
  <millis>1663427321484</millis>
  <nanos>268500</nanos>
  <sequence>0</sequence>
  <logger>global</logger>
  <level>WARNING</level>
  <class>loggerpackage.LogClass</class>
  <method>logMethod</method>
  <thread>1</thread>
  <message>warning message</message>
</record>
<record>
  <date>2022-09-17T15:08:41.554716Z</date>
  <millis>1663427321554</millis>
  <nanos>716000</nanos>
  <sequence>1</sequence>
  <logger>global</logger>
  <level>INFO</level>
  <class>loggerpackage.LogClass</class>
  <method>logMethod</method>
  <thread>1</thread>
  <message>info message</message>
</record>
<record>
  <date>2022-09-17T15:08:41.554716Z</date>
  <millis>1663427321554</millis>
  <nanos>716000</nanos>
  <sequence>2</sequence>
  <logger>global</logger>
  <level>INFO</level>
  <class>loggerpackage.LogClass</class>
  <method>logMethod</method>
  <thread>1</thread>
  <message>data added</message>
</record>
<record>
  <date>2022-09-17T15:08:41.555727Z</date>
  <millis>1663427321555</millis>
  <nanos>727000</nanos>
  <sequence>3</sequence>
  <logger>global</logger>
  <level>INFO</level>
  <class>loggerpackage.LogClass</class>
  <method>logMethod</method>
  <thread>1</thread>
  <message>tasks added</message>
</record>
</log>
<?xml version="1.0" encoding="windows-1252" standalone="no"?>
<!DOCTYPE log SYSTEM "logger.dtd">
<log>
<record>
  <date>2022-09-17T15:27:34.047189300Z</date>
  <millis>1663428454047</millis>
  <nanos>189300</nanos>
  <sequence>0</sequence>
  <logger>global</logger>
  <level>WARNING</level>
  <class>loggerpackage.LogClass</class>
  <method>logMethod</method>
  <thread>1</thread>
  <message>warning message</message>
</record>
<record>
  <date>2022-09-17T15:27:34.111935600Z</date>
  <millis>1663428454111</millis>
  <nanos>935600</nanos>
  <sequence>1</sequence>
  <logger>global</logger>
  <level>INFO</level>
  <class>loggerpackage.LogClass</class>
  <method>logMethod</method>
  <thread>1</thread>
  <message>info message</message>
</record>
<record>
  <date>2022-09-17T15:27:34.113400900Z</date>
  <millis>1663428454113</millis>
  <nanos>400900</nanos>
  <sequence>2</sequence>
  <logger>global</logger>
  <level>INFO</level>
  <class>loggerpackage.LogClass</class>
  <method>logMethod</method>
  <thread>1</thread>
  <message>data added</message>
</record>
<record>
  <date>2022-09-17T15:27:34.114533800Z</date>
  <millis>1663428454114</millis>
  <nanos>533800</nanos>
  <sequence>3</sequence>
  <logger>global</logger>
  <level>INFO</level>
  <class>loggerpackage.LogClass</class>
  <method>logMethod</method>
  <thread>1</thread>
  <message>tasks added</message>
</record>
</log>
<?xml version="1.0" encoding="windows-1252" standalone="no"?>
<!DOCTYPE log SYSTEM "logger.dtd">
<log>
<record>
  <date>2022-09-19T09:00:44.827604400Z</date>
  <millis>1663578044827</millis>
  <nanos>604400</nanos>
  <sequence>0</sequence>
  <logger>global</logger>
  <level>WARNING</level>
  <class>loggerpackage.LogClass</class>
  <method>logMethod</method>
  <thread>1</thread>
  <message>warning message</message>
</record>
<record>
  <date>2022-09-19T09:00:44.889215300Z</date>
  <millis>1663578044889</millis>
  <nanos>215300</nanos>
  <sequence>1</sequence>
  <logger>global</logger>
  <level>INFO</level>
  <class>loggerpackage.LogClass</class>
  <method>logMethod</method>
  <thread>1</thread>
  <message>info message</message>
</record>
<record>
  <date>2022-09-19T09:00:44.889714600Z</date>
  <millis>1663578044889</millis>
  <nanos>714600</nanos>
  <sequence>2</sequence>
  <logger>global</logger>
  <level>INFO</level>
  <class>loggerpackage.LogClass</class>
  <method>logMethod</method>
  <thread>1</thread>
  <message>data added</message>
</record>
<record>
  <date>2022-09-19T09:00:44.889714600Z</date>
  <millis>1663578044889</millis>
  <nanos>714600</nanos>
  <sequence>3</sequence>
  <logger>global</logger>
  <level>INFO</level>
  <class>loggerpackage.LogClass</class>
  <method>logMethod</method>
  <thread>1</thread>
  <message>tasks added</message>
</record>
</log>
<?xml version="1.0" encoding="windows-1252" standalone="no"?>
<!DOCTYPE log SYSTEM "logger.dtd">
<log>
<record>
  <date>2022-09-19T09:02:13.020160100Z</date>
  <millis>1663578133020</millis>
  <nanos>160100</nanos>
  <sequence>0</sequence>
  <logger>global</logger>
  <level>WARNING</level>
  <class>loggerpackage.LogClass</class>
  <method>logMethod</method>
  <thread>1</thread>
  <message>warning message</message>
</record>
<record>
  <date>2022-09-19T09:02:13.078363100Z</date>
  <millis>1663578133078</millis>
  <nanos>363100</nanos>
  <sequence>1</sequence>
  <logger>global</logger>
  <level>INFO</level>
  <class>loggerpackage.LogClass</class>
  <method>logMethod</method>
  <thread>1</thread>
  <message>info message</message>
</record>
<record>
  <date>2022-09-19T09:02:13.079279200Z</date>
  <millis>1663578133079</millis>
  <nanos>279200</nanos>
  <sequence>2</sequence>
  <logger>global</logger>
  <level>INFO</level>
  <class>loggerpackage.LogClass</class>
  <method>logMethod</method>
  <thread>1</thread>
  <message>data added</message>
</record>
<record>
  <date>2022-09-19T09:02:13.079279200Z</date>
  <millis>1663578133079</millis>
  <nanos>279200</nanos>
  <sequence>3</sequence>
  <logger>global</logger>
  <level>INFO</level>
  <class>loggerpackage.LogClass</class>
  <method>logMethod</method>
  <thread>1</thread>
  <message>tasks added</message>
</record>
</log>
<?xml version="1.0" encoding="windows-1252" standalone="no"?>
<!DOCTYPE log SYSTEM "logger.dtd">
<log>
<record>
  <date>2022-09-19T12:25:54.698747600Z</date>
  <millis>1663590354698</millis>
  <nanos>747600</nanos>
  <sequence>0</sequence>
  <logger>global</logger>
  <level>WARNING</level>
  <class>loggerpackage.LogClass</class>
  <method>logMethod</method>
  <thread>1</thread>
  <message>warning message</message>
</record>
<record>
  <date>2022-09-19T12:25:54.848629600Z</date>
  <millis>1663590354848</millis>
  <nanos>629600</nanos>
  <sequence>1</sequence>
  <logger>global</logger>
  <level>INFO</level>
  <class>loggerpackage.LogClass</class>
  <method>logMethod</method>
  <thread>1</thread>
  <message>info message</message>
</record>
<record>
  <date>2022-09-19T12:25:54.849805500Z</date>
  <millis>1663590354849</millis>
  <nanos>805500</nanos>
  <sequence>2</sequence>
  <logger>global</logger>
  <level>INFO</level>
  <class>loggerpackage.LogClass</class>
  <method>logMethod</method>
  <thread>1</thread>
  <message>data added</message>
</record>
<record>
  <date>2022-09-19T12:25:54.851028900Z</date>
  <millis>1663590354851</millis>
  <nanos>28900</nanos>
  <sequence>3</sequence>
  <logger>global</logger>
  <level>INFO</level>
  <class>loggerpackage.LogClass</class>
  <method>logMethod</method>
  <thread>1</thread>
  <message>tasks added</message>
</record>
</log>
